<svg width="138" height="103" viewBox="0 0 138 103" fill="none" xmlns="http://www.w3.org/2000/svg">
<g filter="url(#filter0_d)">
<path d="M19.6549 28.5299C19.6236 25.6122 21.9635 23.2215 24.8813 23.1902V23.1902C27.7991 23.1589 30.1897 25.4989 30.221 28.4166L30.731 75.9644C30.7623 78.8821 28.4223 81.2728 25.5045 81.3041V81.3041C22.5868 81.3354 20.1961 78.9955 20.1648 76.0777L19.6549 28.5299Z" fill="#4246B7"/>
</g>
<g filter="url(#filter1_d)">
<path d="M77.7721 45.4368C77.7408 42.5191 80.0808 40.1284 82.9985 40.0971V40.0971C85.9163 40.0658 88.307 42.4057 88.3383 45.3235L88.6782 77.022C88.7095 79.9398 86.3696 82.3304 83.4518 82.3617V82.3617C80.5341 82.393 78.1434 80.0531 78.1121 77.1353L77.7721 45.4368Z" fill="#4246B7"/>
</g>
<g filter="url(#filter2_d)">
<path d="M84.5663 64.9711C82.5335 62.8778 82.5824 59.5329 84.6757 57.5L96.0463 46.4575C98.1396 44.4247 101.484 44.4736 103.517 46.5669V46.5669C105.55 48.6602 105.501 52.0051 103.408 54.0379L92.0374 65.0804C89.9441 67.1133 86.5992 67.0643 84.5663 64.9711V64.9711Z" fill="#4246B7"/>
</g>
<g filter="url(#filter3_d)">
<path d="M37.5617 32.629C37.5617 30.3027 39.4475 28.4169 41.7738 28.4169H54.2379C56.5642 28.4169 58.45 30.3027 58.45 32.629V32.629C58.45 34.9553 56.5642 36.8411 54.2379 36.8411H41.7738C39.4475 36.8411 37.5617 34.9553 37.5617 32.629V32.629Z" fill="#4246B7"/>
</g>
<g filter="url(#filter4_d)">
<path d="M37.5617 54.8192C37.5617 52.493 39.4475 50.6071 41.7738 50.6071H54.2379C56.5642 50.6071 58.45 52.493 58.45 54.8192V54.8192C58.45 57.1455 56.5642 59.0313 54.2379 59.0313H41.7738C39.4475 59.0313 37.5617 57.1455 37.5617 54.8192V54.8192Z" fill="#7B61FF"/>
</g>
<g filter="url(#filter5_d)">
<path d="M38.6184 77.0094C38.6184 74.6832 40.5042 72.7973 42.8305 72.7973H55.2946C57.6209 72.7973 59.5067 74.6832 59.5067 77.0094V77.0094C59.5067 79.3357 57.6209 81.2215 55.2946 81.2215H42.8305C40.5042 81.2215 38.6184 79.3357 38.6184 77.0094V77.0094Z" fill="#7B61FF"/>
</g>
<g filter="url(#filter6_d)">
<path d="M85.9256 57.9596C88.2781 56.2333 91.5846 56.741 93.3109 59.0935L114.782 88.3538C116.508 90.7063 116.001 94.0128 113.648 95.7391V95.7391C111.296 97.4654 107.989 96.9577 106.263 94.6052L84.7917 65.3449C83.0654 62.9924 83.5731 59.6859 85.9256 57.9596V57.9596Z" fill="#4246B7"/>
</g>
<g filter="url(#filter7_d)">
<path d="M14.7482 75.3773C14.7573 78.2952 12.3992 80.668 9.48129 80.6771V80.6771C6.56337 80.6862 4.19054 78.3282 4.18143 75.4103L4.0165 22.5766C4.00739 19.6587 6.36544 17.2859 9.28336 17.2768V17.2768C12.2013 17.2677 14.5741 19.6257 14.5832 22.5437L14.7482 75.3773Z" fill="#7B61FF"/>
</g>
<g filter="url(#filter8_d)">
<path d="M46.804 75.9204C46.8525 78.8379 44.5267 81.2424 41.6092 81.2909V81.2909C38.6917 81.3395 36.2872 79.0137 36.2386 76.0962L35.5362 33.8753C35.4876 30.9577 37.8134 28.5533 40.7309 28.5047V28.5047C43.6485 28.4562 46.0529 30.782 46.1015 33.6995L46.804 75.9204Z" fill="#7B61FF"/>
</g>
<g filter="url(#filter9_d)">
<path d="M116.88 79.4881C115.212 81.8823 111.919 82.4711 109.524 80.8032V80.8032C107.13 79.1352 106.541 75.8422 108.209 73.448L123.31 51.7723C124.978 49.378 128.271 48.7893 130.665 50.4572V50.4572C133.059 52.1251 133.648 55.4182 131.98 57.8124L116.88 79.4881Z" fill="#7B61FF"/>
</g>
<g filter="url(#filter10_d)">
<path d="M123.864 79.1799C126.027 81.9985 129.583 82.4232 131.806 80.1285C134.029 77.8337 134.078 73.6885 131.914 70.8699L116.246 50.4555C114.083 47.6368 101.852 35.6323 99.6293 37.927C97.4061 40.2218 106.032 55.9468 108.195 58.7654L123.864 79.1799Z" fill="#7B61FF"/>
</g>
<g filter="url(#filter11_d)">
<path d="M73.1337 77.0182C73.1823 79.9358 70.8565 82.3402 67.939 82.3888V82.3888C65.0214 82.4373 62.617 80.1115 62.5684 77.194L61.9532 40.2154C61.9046 37.2979 64.2304 34.8934 67.1479 34.8449V34.8449C70.0655 34.7963 72.4699 37.1221 72.5185 40.0396L73.1337 77.0182Z" fill="#9195FF"/>
</g>
<g filter="url(#filter12_d)">
<path d="M86.8772 35.3902C86.2135 36.1294 85.3695 36.684 84.4275 36.9998L70.7764 41.577C69.5007 42.0048 68.1181 41.9913 66.851 41.5387L65.8285 41.1735C63.8415 40.4638 62.3732 38.7626 61.9618 36.6931L58.6883 20.2287C57.8102 15.8122 62.3126 12.264 66.4015 14.1503V14.1503C68.1556 14.9594 69.3579 16.628 69.5703 18.548L70.0048 22.4743C70.4697 26.6751 75.0303 29.0781 78.758 27.0862L79.8914 26.4806C85.565 23.449 91.1748 30.6036 86.8772 35.3902V35.3902Z" fill="#747AFF"/>
</g>
<g filter="url(#filter13_d)">
<path d="M35.4482 35.8137C38.3662 35.8137 40.7316 38.1791 40.7316 41.0971V41.0971C40.7316 44.015 38.3662 46.3804 35.4482 46.3804H14.3147C11.3968 46.3804 9.03131 44.015 9.03131 41.0971V41.0971C9.03131 38.1791 11.3968 35.8137 14.3147 35.8137H35.4482Z" fill="#9195FF"/>
</g>
<defs>
<filter id="filter0_d" x="15.6545" y="21.1899" width="19.0767" height="66.1145" filterUnits="userSpaceOnUse" color-interpolation-filters="sRGB">
<feFlood flood-opacity="0" result="BackgroundImageFix"/>
<feColorMatrix in="SourceAlpha" type="matrix" values="0 0 0 0 0 0 0 0 0 0 0 0 0 0 0 0 0 0 127 0"/>
<feOffset dy="2"/>
<feGaussianBlur stdDeviation="2"/>
<feColorMatrix type="matrix" values="0 0 0 0 0 0 0 0 0 0 0 0 0 0 0 0 0 0 0.1 0"/>
<feBlend mode="normal" in2="BackgroundImageFix" result="effect1_dropShadow"/>
<feBlend mode="normal" in="SourceGraphic" in2="effect1_dropShadow" result="shape"/>
</filter>
<filter id="filter1_d" x="73.7718" y="38.0968" width="18.9067" height="50.2653" filterUnits="userSpaceOnUse" color-interpolation-filters="sRGB">
<feFlood flood-opacity="0" result="BackgroundImageFix"/>
<feColorMatrix in="SourceAlpha" type="matrix" values="0 0 0 0 0 0 0 0 0 0 0 0 0 0 0 0 0 0 127 0"/>
<feOffset dy="2"/>
<feGaussianBlur stdDeviation="2"/>
<feColorMatrix type="matrix" values="0 0 0 0 0 0 0 0 0 0 0 0 0 0 0 0 0 0 0.1 0"/>
<feBlend mode="normal" in2="BackgroundImageFix" result="effect1_dropShadow"/>
<feBlend mode="normal" in="SourceGraphic" in2="effect1_dropShadow" result="shape"/>
</filter>
<filter id="filter2_d" x="79.0731" y="42.9643" width="29.9374" height="29.6093" filterUnits="userSpaceOnUse" color-interpolation-filters="sRGB">
<feFlood flood-opacity="0" result="BackgroundImageFix"/>
<feColorMatrix in="SourceAlpha" type="matrix" values="0 0 0 0 0 0 0 0 0 0 0 0 0 0 0 0 0 0 127 0"/>
<feOffset dy="2"/>
<feGaussianBlur stdDeviation="2"/>
<feColorMatrix type="matrix" values="0 0 0 0 0 0 0 0 0 0 0 0 0 0 0 0 0 0 0.1 0"/>
<feBlend mode="normal" in2="BackgroundImageFix" result="effect1_dropShadow"/>
<feBlend mode="normal" in="SourceGraphic" in2="effect1_dropShadow" result="shape"/>
</filter>
<filter id="filter3_d" x="33.5617" y="26.4169" width="28.8883" height="16.4242" filterUnits="userSpaceOnUse" color-interpolation-filters="sRGB">
<feFlood flood-opacity="0" result="BackgroundImageFix"/>
<feColorMatrix in="SourceAlpha" type="matrix" values="0 0 0 0 0 0 0 0 0 0 0 0 0 0 0 0 0 0 127 0"/>
<feOffset dy="2"/>
<feGaussianBlur stdDeviation="2"/>
<feColorMatrix type="matrix" values="0 0 0 0 0 0 0 0 0 0 0 0 0 0 0 0 0 0 0.1 0"/>
<feBlend mode="normal" in2="BackgroundImageFix" result="effect1_dropShadow"/>
<feBlend mode="normal" in="SourceGraphic" in2="effect1_dropShadow" result="shape"/>
</filter>
<filter id="filter4_d" x="33.5617" y="48.6071" width="28.8883" height="16.4242" filterUnits="userSpaceOnUse" color-interpolation-filters="sRGB">
<feFlood flood-opacity="0" result="BackgroundImageFix"/>
<feColorMatrix in="SourceAlpha" type="matrix" values="0 0 0 0 0 0 0 0 0 0 0 0 0 0 0 0 0 0 127 0"/>
<feOffset dy="2"/>
<feGaussianBlur stdDeviation="2"/>
<feColorMatrix type="matrix" values="0 0 0 0 0 0 0 0 0 0 0 0 0 0 0 0 0 0 0.1 0"/>
<feBlend mode="normal" in2="BackgroundImageFix" result="effect1_dropShadow"/>
<feBlend mode="normal" in="SourceGraphic" in2="effect1_dropShadow" result="shape"/>
</filter>
<filter id="filter5_d" x="34.6184" y="70.7973" width="28.8883" height="16.4242" filterUnits="userSpaceOnUse" color-interpolation-filters="sRGB">
<feFlood flood-opacity="0" result="BackgroundImageFix"/>
<feColorMatrix in="SourceAlpha" type="matrix" values="0 0 0 0 0 0 0 0 0 0 0 0 0 0 0 0 0 0 127 0"/>
<feOffset dy="2"/>
<feGaussianBlur stdDeviation="2"/>
<feColorMatrix type="matrix" values="0 0 0 0 0 0 0 0 0 0 0 0 0 0 0 0 0 0 0.1 0"/>
<feBlend mode="normal" in2="BackgroundImageFix" result="effect1_dropShadow"/>
<feBlend mode="normal" in="SourceGraphic" in2="effect1_dropShadow" result="shape"/>
</filter>
<filter id="filter6_d" x="79.7675" y="54.9355" width="40.0386" height="47.8278" filterUnits="userSpaceOnUse" color-interpolation-filters="sRGB">
<feFlood flood-opacity="0" result="BackgroundImageFix"/>
<feColorMatrix in="SourceAlpha" type="matrix" values="0 0 0 0 0 0 0 0 0 0 0 0 0 0 0 0 0 0 127 0"/>
<feOffset dy="2"/>
<feGaussianBlur stdDeviation="2"/>
<feColorMatrix type="matrix" values="0 0 0 0 0 0 0 0 0 0 0 0 0 0 0 0 0 0 0.1 0"/>
<feBlend mode="normal" in2="BackgroundImageFix" result="effect1_dropShadow"/>
<feBlend mode="normal" in="SourceGraphic" in2="effect1_dropShadow" result="shape"/>
</filter>
<filter id="filter7_d" x="0.0164795" y="15.2768" width="18.7317" height="71.4004" filterUnits="userSpaceOnUse" color-interpolation-filters="sRGB">
<feFlood flood-opacity="0" result="BackgroundImageFix"/>
<feColorMatrix in="SourceAlpha" type="matrix" values="0 0 0 0 0 0 0 0 0 0 0 0 0 0 0 0 0 0 127 0"/>
<feOffset dy="2"/>
<feGaussianBlur stdDeviation="2"/>
<feColorMatrix type="matrix" values="0 0 0 0 0 0 0 0 0 0 0 0 0 0 0 0 0 0 0.1 0"/>
<feBlend mode="normal" in2="BackgroundImageFix" result="effect1_dropShadow"/>
<feBlend mode="normal" in="SourceGraphic" in2="effect1_dropShadow" result="shape"/>
</filter>
<filter id="filter8_d" x="31.5354" y="26.504" width="19.2693" height="60.7877" filterUnits="userSpaceOnUse" color-interpolation-filters="sRGB">
<feFlood flood-opacity="0" result="BackgroundImageFix"/>
<feColorMatrix in="SourceAlpha" type="matrix" values="0 0 0 0 0 0 0 0 0 0 0 0 0 0 0 0 0 0 127 0"/>
<feOffset dy="2"/>
<feGaussianBlur stdDeviation="2"/>
<feColorMatrix type="matrix" values="0 0 0 0 0 0 0 0 0 0 0 0 0 0 0 0 0 0 0.1 0"/>
<feBlend mode="normal" in2="BackgroundImageFix" result="effect1_dropShadow"/>
<feBlend mode="normal" in="SourceGraphic" in2="effect1_dropShadow" result="shape"/>
</filter>
<filter id="filter9_d" x="103.261" y="47.5085" width="33.668" height="40.2434" filterUnits="userSpaceOnUse" color-interpolation-filters="sRGB">
<feFlood flood-opacity="0" result="BackgroundImageFix"/>
<feColorMatrix in="SourceAlpha" type="matrix" values="0 0 0 0 0 0 0 0 0 0 0 0 0 0 0 0 0 0 127 0"/>
<feOffset dy="2"/>
<feGaussianBlur stdDeviation="2"/>
<feColorMatrix type="matrix" values="0 0 0 0 0 0 0 0 0 0 0 0 0 0 0 0 0 0 0.1 0"/>
<feBlend mode="normal" in2="BackgroundImageFix" result="effect1_dropShadow"/>
<feBlend mode="normal" in="SourceGraphic" in2="effect1_dropShadow" result="shape"/>
</filter>
<filter id="filter10_d" x="95.2662" y="35.6373" width="42.2395" height="51.9688" filterUnits="userSpaceOnUse" color-interpolation-filters="sRGB">
<feFlood flood-opacity="0" result="BackgroundImageFix"/>
<feColorMatrix in="SourceAlpha" type="matrix" values="0 0 0 0 0 0 0 0 0 0 0 0 0 0 0 0 0 0 127 0"/>
<feOffset dy="2"/>
<feGaussianBlur stdDeviation="2"/>
<feColorMatrix type="matrix" values="0 0 0 0 0 0 0 0 0 0 0 0 0 0 0 0 0 0 0.1 0"/>
<feBlend mode="normal" in2="BackgroundImageFix" result="effect1_dropShadow"/>
<feBlend mode="normal" in="SourceGraphic" in2="effect1_dropShadow" result="shape"/>
</filter>
<filter id="filter11_d" x="57.9524" y="32.8441" width="19.1821" height="55.5454" filterUnits="userSpaceOnUse" color-interpolation-filters="sRGB">
<feFlood flood-opacity="0" result="BackgroundImageFix"/>
<feColorMatrix in="SourceAlpha" type="matrix" values="0 0 0 0 0 0 0 0 0 0 0 0 0 0 0 0 0 0 127 0"/>
<feOffset dy="2"/>
<feGaussianBlur stdDeviation="2"/>
<feColorMatrix type="matrix" values="0 0 0 0 0 0 0 0 0 0 0 0 0 0 0 0 0 0 0.1 0"/>
<feBlend mode="normal" in2="BackgroundImageFix" result="effect1_dropShadow"/>
<feBlend mode="normal" in="SourceGraphic" in2="effect1_dropShadow" result="shape"/>
</filter>
<filter id="filter12_d" x="54.5774" y="11.6323" width="37.8193" height="36.256" filterUnits="userSpaceOnUse" color-interpolation-filters="sRGB">
<feFlood flood-opacity="0" result="BackgroundImageFix"/>
<feColorMatrix in="SourceAlpha" type="matrix" values="0 0 0 0 0 0 0 0 0 0 0 0 0 0 0 0 0 0 127 0"/>
<feOffset dy="2"/>
<feGaussianBlur stdDeviation="2"/>
<feColorMatrix type="matrix" values="0 0 0 0 0 0 0 0 0 0 0 0 0 0 0 0 0 0 0.1 0"/>
<feBlend mode="normal" in2="BackgroundImageFix" result="effect1_dropShadow"/>
<feBlend mode="normal" in="SourceGraphic" in2="effect1_dropShadow" result="shape"/>
</filter>
<filter id="filter13_d" x="5.03125" y="33.8137" width="39.7003" height="18.5668" filterUnits="userSpaceOnUse" color-interpolation-filters="sRGB">
<feFlood flood-opacity="0" result="BackgroundImageFix"/>
<feColorMatrix in="SourceAlpha" type="matrix" values="0 0 0 0 0 0 0 0 0 0 0 0 0 0 0 0 0 0 127 0"/>
<feOffset dy="2"/>
<feGaussianBlur stdDeviation="2"/>
<feColorMatrix type="matrix" values="0 0 0 0 0 0 0 0 0 0 0 0 0 0 0 0 0 0 0.1 0"/>
<feBlend mode="normal" in2="BackgroundImageFix" result="effect1_dropShadow"/>
<feBlend mode="normal" in="SourceGraphic" in2="effect1_dropShadow" result="shape"/>
</filter>
</defs>
</svg>
